concatenate(
    concatenate(
        if(mid(%1%,1,1)="3",mid(%1%,2,1),""),
        if(mid(%1%,3,1)="3",mid(%1%,4,1),""),
        if(mid(%1%,5,1)="3",mid(%1%,6,1),""),
        if(mid(%1%,7,1)="3",mid(%1%,8,1),""),
        if(mid(%1%,9,1)="3",mid(%1%,10,1),""),
        if(mid(%1%,11,1)="3",mid(%1%,12,1),""),
        if(mid(%1%,13,1)="3",mid(%1%,14,1),""),
        if(mid(%1%,15,1)="3",mid(%1%,16,1),"")
    ),concatenate(
        if(mid(%1%,17,1)="3",mid(%1%,18,1),""),
        if(mid(%1%,19,1)="3",mid(%1%,20,1),""),
        if(mid(%1%,21,1)="3",mid(%1%,22,1),""),
        if(mid(%1%,23,1)="3",mid(%1%,24,1),""),
        if(mid(%1%,25,1)="3",mid(%1%,26,1),""),
        if(mid(%1%,27,1)="3",mid(%1%,28,1),""),
        if(mid(%1%,29,1)="3",mid(%1%,30,1),""),
        if(mid(%1%,31,1)="3",mid(%1%,32,1),"")
    ),concatenate(
        if(mid(%1%,33,1)="3",mid(%1%,34,1),""),
        if(mid(%1%,35,1)="3",mid(%1%,36,1),""),
        if(mid(%1%,37,1)="3",mid(%1%,38,1),""),
        if(mid(%1%,39,1)="3",mid(%1%,40,1),""),
        if(mid(%1%,41,1)="3",mid(%1%,42,1),""),
        if(mid(%1%,43,1)="3",mid(%1%,44,1),""),
        if(mid(%1%,45,1)="3",mid(%1%,46,1),""),
        if(mid(%1%,47,1)="3",mid(%1%,48,1),"")
    )
)
